('C:\\Users\\User\\PycharmProjects\\MediaPlayerSpecial\\build\\main\\PYZ-00.pyz',
 [('PIL',
   'C:\\Users\\User\\anaconda3\\envs\\MediaPlayerSpecial\\lib\\site-packages\\PIL\\__init__.py',
   'PYMODULE'),
  ('PIL.BlpImagePlugin',
   'C:\\Users\\User\\anaconda3\\envs\\MediaPlayerSpecial\\lib\\site-packages\\PIL\\BlpImagePlugin.py',
   'PYMODULE'),
  ('PIL.BmpImagePlugin',
   'C:\\Users\\User\\anaconda3\\envs\\MediaPlayerSpecial\\lib\\site-packages\\PIL\\BmpImagePlugin.py',
   'PYMODULE'),
  ('PIL.BufrStubImagePlugin',
   'C:\\Users\\User\\anaconda3\\envs\\MediaPlayerSpecial\\lib\\site-packages\\PIL\\BufrStubImagePlugin.py',
   'PYMODULE'),
  ('PIL.CurImagePlugin',
   'C:\\Users\\User\\anaconda3\\envs\\MediaPlayerSpecial\\lib\\site-packages\\PIL\\CurImagePlugin.py',
   'PYMODULE'),
  ('PIL.DcxImagePlugin',
   'C:\\Users\\User\\anaconda3\\envs\\MediaPlayerSpecial\\lib\\site-packages\\PIL\\DcxImagePlugin.py',
   'PYMODULE'),
  ('PIL.DdsImagePlugin',
   'C:\\Users\\User\\anaconda3\\envs\\MediaPlayerSpecial\\lib\\site-packages\\PIL\\DdsImagePlugin.py',
   'PYMODULE'),
  ('PIL.EpsImagePlugin',
   'C:\\Users\\User\\anaconda3\\envs\\MediaPlayerSpecial\\lib\\site-packages\\PIL\\EpsImagePlugin.py',
   'PYMODULE'),
  ('PIL.ExifTags',
   'C:\\Users\\User\\anaconda3\\envs\\MediaPlayerSpecial\\lib\\site-packages\\PIL\\ExifTags.py',
   'PYMODULE'),
  ('PIL.FitsImagePlugin',
   'C:\\Users\\User\\anaconda3\\envs\\MediaPlayerSpecial\\lib\\site-packages\\PIL\\FitsImagePlugin.py',
   'PYMODULE'),
  ('PIL.FliImagePlugin',
   'C:\\Users\\User\\anaconda3\\envs\\MediaPlayerSpecial\\lib\\site-packages\\PIL\\FliImagePlugin.py',
   'PYMODULE'),
  ('PIL.FpxImagePlugin',
   'C:\\Users\\User\\anaconda3\\envs\\MediaPlayerSpecial\\lib\\site-packages\\PIL\\FpxImagePlugin.py',
   'PYMODULE'),
  ('PIL.FtexImagePlugin',
   'C:\\Users\\User\\anaconda3\\envs\\MediaPlayerSpecial\\lib\\site-packages\\PIL\\FtexImagePlugin.py',
   'PYMODULE'),
  ('PIL.GbrImagePlugin',
   'C:\\Users\\User\\anaconda3\\envs\\MediaPlayerSpecial\\lib\\site-packages\\PIL\\GbrImagePlugin.py',
   'PYMODULE'),
  ('PIL.GifImagePlugin',
   'C:\\Users\\User\\anaconda3\\envs\\MediaPlayerSpecial\\lib\\site-packages\\PIL\\GifImagePlugin.py',
   'PYMODULE'),
  ('PIL.GimpGradientFile',
   'C:\\Users\\User\\anaconda3\\envs\\MediaPlayerSpecial\\lib\\site-packages\\PIL\\GimpGradientFile.py',
   'PYMODULE'),
  ('PIL.GimpPaletteFile',
   'C:\\Users\\User\\anaconda3\\envs\\MediaPlayerSpecial\\lib\\site-packages\\PIL\\GimpPaletteFile.py',
   'PYMODULE'),
  ('PIL.GribStubImagePlugin',
   'C:\\Users\\User\\anaconda3\\envs\\MediaPlayerSpecial\\lib\\site-packages\\PIL\\GribStubImagePlugin.py',
   'PYMODULE'),
  ('PIL.Hdf5StubImagePlugin',
   'C:\\Users\\User\\anaconda3\\envs\\MediaPlayerSpecial\\lib\\site-packages\\PIL\\Hdf5StubImagePlugin.py',
   'PYMODULE'),
  ('PIL.IcnsImagePlugin',
   'C:\\Users\\User\\anaconda3\\envs\\MediaPlayerSpecial\\lib\\site-packages\\PIL\\IcnsImagePlugin.py',
   'PYMODULE'),
  ('PIL.IcoImagePlugin',
   'C:\\Users\\User\\anaconda3\\envs\\MediaPlayerSpecial\\lib\\site-packages\\PIL\\IcoImagePlugin.py',
   'PYMODULE'),
  ('PIL.ImImagePlugin',
   'C:\\Users\\User\\anaconda3\\envs\\MediaPlayerSpecial\\lib\\site-packages\\PIL\\ImImagePlugin.py',
   'PYMODULE'),
  ('PIL.Image',
   'C:\\Users\\User\\anaconda3\\envs\\MediaPlayerSpecial\\lib\\site-packages\\PIL\\Image.py',
   'PYMODULE'),
  ('PIL.ImageChops',
   'C:\\Users\\User\\anaconda3\\envs\\MediaPlayerSpecial\\lib\\site-packages\\PIL\\ImageChops.py',
   'PYMODULE'),
  ('PIL.ImageCms',
   'C:\\Users\\User\\anaconda3\\envs\\MediaPlayerSpecial\\lib\\site-packages\\PIL\\ImageCms.py',
   'PYMODULE'),
  ('PIL.ImageColor',
   'C:\\Users\\User\\anaconda3\\envs\\MediaPlayerSpecial\\lib\\site-packages\\PIL\\ImageColor.py',
   'PYMODULE'),
  ('PIL.ImageFile',
   'C:\\Users\\User\\anaconda3\\envs\\MediaPlayerSpecial\\lib\\site-packages\\PIL\\ImageFile.py',
   'PYMODULE'),
  ('PIL.ImageFilter',
   'C:\\Users\\User\\anaconda3\\envs\\MediaPlayerSpecial\\lib\\site-packages\\PIL\\ImageFilter.py',
   'PYMODULE'),
  ('PIL.ImageMode',
   'C:\\Users\\User\\anaconda3\\envs\\MediaPlayerSpecial\\lib\\site-packages\\PIL\\ImageMode.py',
   'PYMODULE'),
  ('PIL.ImageOps',
   'C:\\Users\\User\\anaconda3\\envs\\MediaPlayerSpecial\\lib\\site-packages\\PIL\\ImageOps.py',
   'PYMODULE'),
  ('PIL.ImagePalette',
   'C:\\Users\\User\\anaconda3\\envs\\MediaPlayerSpecial\\lib\\site-packages\\PIL\\ImagePalette.py',
   'PYMODULE'),
  ('PIL.ImageQt',
   'C:\\Users\\User\\anaconda3\\envs\\MediaPlayerSpecial\\lib\\site-packages\\PIL\\ImageQt.py',
   'PYMODULE'),
  ('PIL.ImageSequence',
   'C:\\Users\\User\\anaconda3\\envs\\MediaPlayerSpecial\\lib\\site-packages\\PIL\\ImageSequence.py',
   'PYMODULE'),
  ('PIL.ImageShow',
   'C:\\Users\\User\\anaconda3\\envs\\MediaPlayerSpecial\\lib\\site-packages\\PIL\\ImageShow.py',
   'PYMODULE'),
  ('PIL.ImageTk',
   'C:\\Users\\User\\anaconda3\\envs\\MediaPlayerSpecial\\lib\\site-packages\\PIL\\ImageTk.py',
   'PYMODULE'),
  ('PIL.ImageWin',
   'C:\\Users\\User\\anaconda3\\envs\\MediaPlayerSpecial\\lib\\site-packages\\PIL\\ImageWin.py',
   'PYMODULE'),
  ('PIL.ImtImagePlugin',
   'C:\\Users\\User\\anaconda3\\envs\\MediaPlayerSpecial\\lib\\site-packages\\PIL\\ImtImagePlugin.py',
   'PYMODULE'),
  ('PIL.IptcImagePlugin',
   'C:\\Users\\User\\anaconda3\\envs\\MediaPlayerSpecial\\lib\\site-packages\\PIL\\IptcImagePlugin.py',
   'PYMODULE'),
  ('PIL.Jpeg2KImagePlugin',
   'C:\\Users\\User\\anaconda3\\envs\\MediaPlayerSpecial\\lib\\site-packages\\PIL\\Jpeg2KImagePlugin.py',
   'PYMODULE'),
  ('PIL.JpegImagePlugin',
   'C:\\Users\\User\\anaconda3\\envs\\MediaPlayerSpecial\\lib\\site-packages\\PIL\\JpegImagePlugin.py',
   'PYMODULE'),
  ('PIL.JpegPresets',
   'C:\\Users\\User\\anaconda3\\envs\\MediaPlayerSpecial\\lib\\site-packages\\PIL\\JpegPresets.py',
   'PYMODULE'),
  ('PIL.McIdasImagePlugin',
   'C:\\Users\\User\\anaconda3\\envs\\MediaPlayerSpecial\\lib\\site-packages\\PIL\\McIdasImagePlugin.py',
   'PYMODULE'),
  ('PIL.MicImagePlugin',
   'C:\\Users\\User\\anaconda3\\envs\\MediaPlayerSpecial\\lib\\site-packages\\PIL\\MicImagePlugin.py',
   'PYMODULE'),
  ('PIL.MpegImagePlugin',
   'C:\\Users\\User\\anaconda3\\envs\\MediaPlayerSpecial\\lib\\site-packages\\PIL\\MpegImagePlugin.py',
   'PYMODULE'),
  ('PIL.MpoImagePlugin',
   'C:\\Users\\User\\anaconda3\\envs\\MediaPlayerSpecial\\lib\\site-packages\\PIL\\MpoImagePlugin.py',
   'PYMODULE'),
  ('PIL.MspImagePlugin',
   'C:\\Users\\User\\anaconda3\\envs\\MediaPlayerSpecial\\lib\\site-packages\\PIL\\MspImagePlugin.py',
   'PYMODULE'),
  ('PIL.PaletteFile',
   'C:\\Users\\User\\anaconda3\\envs\\MediaPlayerSpecial\\lib\\site-packages\\PIL\\PaletteFile.py',
   'PYMODULE'),
  ('PIL.PalmImagePlugin',
   'C:\\Users\\User\\anaconda3\\envs\\MediaPlayerSpecial\\lib\\site-packages\\PIL\\PalmImagePlugin.py',
   'PYMODULE'),
  ('PIL.PcdImagePlugin',
   'C:\\Users\\User\\anaconda3\\envs\\MediaPlayerSpecial\\lib\\site-packages\\PIL\\PcdImagePlugin.py',
   'PYMODULE'),
  ('PIL.PcxImagePlugin',
   'C:\\Users\\User\\anaconda3\\envs\\MediaPlayerSpecial\\lib\\site-packages\\PIL\\PcxImagePlugin.py',
   'PYMODULE'),
  ('PIL.PdfImagePlugin',
   'C:\\Users\\User\\anaconda3\\envs\\MediaPlayerSpecial\\lib\\site-packages\\PIL\\PdfImagePlugin.py',
   'PYMODULE'),
  ('PIL.PdfParser',
   'C:\\Users\\User\\anaconda3\\envs\\MediaPlayerSpecial\\lib\\site-packages\\PIL\\PdfParser.py',
   'PYMODULE'),
  ('PIL.PixarImagePlugin',
   'C:\\Users\\User\\anaconda3\\envs\\MediaPlayerSpecial\\lib\\site-packages\\PIL\\PixarImagePlugin.py',
   'PYMODULE'),
  ('PIL.PngImagePlugin',
   'C:\\Users\\User\\anaconda3\\envs\\MediaPlayerSpecial\\lib\\site-packages\\PIL\\PngImagePlugin.py',
   'PYMODULE'),
  ('PIL.PpmImagePlugin',
   'C:\\Users\\User\\anaconda3\\envs\\MediaPlayerSpecial\\lib\\site-packages\\PIL\\PpmImagePlugin.py',
   'PYMODULE'),
  ('PIL.PsdImagePlugin',
   'C:\\Users\\User\\anaconda3\\envs\\MediaPlayerSpecial\\lib\\site-packages\\PIL\\PsdImagePlugin.py',
   'PYMODULE'),
  ('PIL.PyAccess',
   'C:\\Users\\User\\anaconda3\\envs\\MediaPlayerSpecial\\lib\\site-packages\\PIL\\PyAccess.py',
   'PYMODULE'),
  ('PIL.QoiImagePlugin',
   'C:\\Users\\User\\anaconda3\\envs\\MediaPlayerSpecial\\lib\\site-packages\\PIL\\QoiImagePlugin.py',
   'PYMODULE'),
  ('PIL.SgiImagePlugin',
   'C:\\Users\\User\\anaconda3\\envs\\MediaPlayerSpecial\\lib\\site-packages\\PIL\\SgiImagePlugin.py',
   'PYMODULE'),
  ('PIL.SpiderImagePlugin',
   'C:\\Users\\User\\anaconda3\\envs\\MediaPlayerSpecial\\lib\\site-packages\\PIL\\SpiderImagePlugin.py',
   'PYMODULE'),
  ('PIL.SunImagePlugin',
   'C:\\Users\\User\\anaconda3\\envs\\MediaPlayerSpecial\\lib\\site-packages\\PIL\\SunImagePlugin.py',
   'PYMODULE'),
  ('PIL.TgaImagePlugin',
   'C:\\Users\\User\\anaconda3\\envs\\MediaPlayerSpecial\\lib\\site-packages\\PIL\\TgaImagePlugin.py',
   'PYMODULE'),
  ('PIL.TiffImagePlugin',
   'C:\\Users\\User\\anaconda3\\envs\\MediaPlayerSpecial\\lib\\site-packages\\PIL\\TiffImagePlugin.py',
   'PYMODULE'),
  ('PIL.TiffTags',
   'C:\\Users\\User\\anaconda3\\envs\\MediaPlayerSpecial\\lib\\site-packages\\PIL\\TiffTags.py',
   'PYMODULE'),
  ('PIL.WebPImagePlugin',
   'C:\\Users\\User\\anaconda3\\envs\\MediaPlayerSpecial\\lib\\site-packages\\PIL\\WebPImagePlugin.py',
   'PYMODULE'),
  ('PIL.WmfImagePlugin',
   'C:\\Users\\User\\anaconda3\\envs\\MediaPlayerSpecial\\lib\\site-packages\\PIL\\WmfImagePlugin.py',
   'PYMODULE'),
  ('PIL.XVThumbImagePlugin',
   'C:\\Users\\User\\anaconda3\\envs\\MediaPlayerSpecial\\lib\\site-packages\\PIL\\XVThumbImagePlugin.py',
   'PYMODULE'),
  ('PIL.XbmImagePlugin',
   'C:\\Users\\User\\anaconda3\\envs\\MediaPlayerSpecial\\lib\\site-packages\\PIL\\XbmImagePlugin.py',
   'PYMODULE'),
  ('PIL.XpmImagePlugin',
   'C:\\Users\\User\\anaconda3\\envs\\MediaPlayerSpecial\\lib\\site-packages\\PIL\\XpmImagePlugin.py',
   'PYMODULE'),
  ('PIL._binary',
   'C:\\Users\\User\\anaconda3\\envs\\MediaPlayerSpecial\\lib\\site-packages\\PIL\\_binary.py',
   'PYMODULE'),
  ('PIL._deprecate',
   'C:\\Users\\User\\anaconda3\\envs\\MediaPlayerSpecial\\lib\\site-packages\\PIL\\_deprecate.py',
   'PYMODULE'),
  ('PIL._util',
   'C:\\Users\\User\\anaconda3\\envs\\MediaPlayerSpecial\\lib\\site-packages\\PIL\\_util.py',
   'PYMODULE'),
  ('PIL._version',
   'C:\\Users\\User\\anaconda3\\envs\\MediaPlayerSpecial\\lib\\site-packages\\PIL\\_version.py',
   'PYMODULE'),
  ('PIL.features',
   'C:\\Users\\User\\anaconda3\\envs\\MediaPlayerSpecial\\lib\\site-packages\\PIL\\features.py',
   'PYMODULE'),
  ('__future__',
   'C:\\Users\\User\\anaconda3\\envs\\MediaPlayerSpecial\\lib\\__future__.py',
   'PYMODULE'),
  ('_aix_support',
   'C:\\Users\\User\\anaconda3\\envs\\MediaPlayerSpecial\\lib\\_aix_support.py',
   'PYMODULE'),
  ('_bootsubprocess',
   'C:\\Users\\User\\anaconda3\\envs\\MediaPlayerSpecial\\lib\\_bootsubprocess.py',
   'PYMODULE'),
  ('_compat_pickle',
   'C:\\Users\\User\\anaconda3\\envs\\MediaPlayerSpecial\\lib\\_compat_pickle.py',
   'PYMODULE'),
  ('_compression',
   'C:\\Users\\User\\anaconda3\\envs\\MediaPlayerSpecial\\lib\\_compression.py',
   'PYMODULE'),
  ('_py_abc',
   'C:\\Users\\User\\anaconda3\\envs\\MediaPlayerSpecial\\lib\\_py_abc.py',
   'PYMODULE'),
  ('_pydecimal',
   'C:\\Users\\User\\anaconda3\\envs\\MediaPlayerSpecial\\lib\\_pydecimal.py',
   'PYMODULE'),
  ('_pyi_rth_utils',
   'C:\\Users\\User\\anaconda3\\envs\\MediaPlayerSpecial\\lib\\site-packages\\PyInstaller\\fake-modules\\_pyi_rth_utils\\__init__.py',
   'PYMODULE'),
  ('_strptime',
   'C:\\Users\\User\\anaconda3\\envs\\MediaPlayerSpecial\\lib\\_strptime.py',
   'PYMODULE'),
  ('_threading_local',
   'C:\\Users\\User\\anaconda3\\envs\\MediaPlayerSpecial\\lib\\_threading_local.py',
   'PYMODULE'),
  ('argparse',
   'C:\\Users\\User\\anaconda3\\envs\\MediaPlayerSpecial\\lib\\argparse.py',
   'PYMODULE'),
  ('ast',
   'C:\\Users\\User\\anaconda3\\envs\\MediaPlayerSpecial\\lib\\ast.py',
   'PYMODULE'),
  ('asyncio',
   'C:\\Users\\User\\anaconda3\\envs\\MediaPlayerSpecial\\lib\\asyncio\\__init__.py',
   'PYMODULE'),
  ('asyncio.base_events',
   'C:\\Users\\User\\anaconda3\\envs\\MediaPlayerSpecial\\lib\\asyncio\\base_events.py',
   'PYMODULE'),
  ('asyncio.base_futures',
   'C:\\Users\\User\\anaconda3\\envs\\MediaPlayerSpecial\\lib\\asyncio\\base_futures.py',
   'PYMODULE'),
  ('asyncio.base_subprocess',
   'C:\\Users\\User\\anaconda3\\envs\\MediaPlayerSpecial\\lib\\asyncio\\base_subprocess.py',
   'PYMODULE'),
  ('asyncio.base_tasks',
   'C:\\Users\\User\\anaconda3\\envs\\MediaPlayerSpecial\\lib\\asyncio\\base_tasks.py',
   'PYMODULE'),
  ('asyncio.constants',
   'C:\\Users\\User\\anaconda3\\envs\\MediaPlayerSpecial\\lib\\asyncio\\constants.py',
   'PYMODULE'),
  ('asyncio.coroutines',
   'C:\\Users\\User\\anaconda3\\envs\\MediaPlayerSpecial\\lib\\asyncio\\coroutines.py',
   'PYMODULE'),
  ('asyncio.events',
   'C:\\Users\\User\\anaconda3\\envs\\MediaPlayerSpecial\\lib\\asyncio\\events.py',
   'PYMODULE'),
  ('asyncio.exceptions',
   'C:\\Users\\User\\anaconda3\\envs\\MediaPlayerSpecial\\lib\\asyncio\\exceptions.py',
   'PYMODULE'),
  ('asyncio.format_helpers',
   'C:\\Users\\User\\anaconda3\\envs\\MediaPlayerSpecial\\lib\\asyncio\\format_helpers.py',
   'PYMODULE'),
  ('asyncio.futures',
   'C:\\Users\\User\\anaconda3\\envs\\MediaPlayerSpecial\\lib\\asyncio\\futures.py',
   'PYMODULE'),
  ('asyncio.locks',
   'C:\\Users\\User\\anaconda3\\envs\\MediaPlayerSpecial\\lib\\asyncio\\locks.py',
   'PYMODULE'),
  ('asyncio.log',
   'C:\\Users\\User\\anaconda3\\envs\\MediaPlayerSpecial\\lib\\asyncio\\log.py',
   'PYMODULE'),
  ('asyncio.proactor_events',
   'C:\\Users\\User\\anaconda3\\envs\\MediaPlayerSpecial\\lib\\asyncio\\proactor_events.py',
   'PYMODULE'),
  ('asyncio.protocols',
   'C:\\Users\\User\\anaconda3\\envs\\MediaPlayerSpecial\\lib\\asyncio\\protocols.py',
   'PYMODULE'),
  ('asyncio.queues',
   'C:\\Users\\User\\anaconda3\\envs\\MediaPlayerSpecial\\lib\\asyncio\\queues.py',
   'PYMODULE'),
  ('asyncio.runners',
   'C:\\Users\\User\\anaconda3\\envs\\MediaPlayerSpecial\\lib\\asyncio\\runners.py',
   'PYMODULE'),
  ('asyncio.selector_events',
   'C:\\Users\\User\\anaconda3\\envs\\MediaPlayerSpecial\\lib\\asyncio\\selector_events.py',
   'PYMODULE'),
  ('asyncio.sslproto',
   'C:\\Users\\User\\anaconda3\\envs\\MediaPlayerSpecial\\lib\\asyncio\\sslproto.py',
   'PYMODULE'),
  ('asyncio.staggered',
   'C:\\Users\\User\\anaconda3\\envs\\MediaPlayerSpecial\\lib\\asyncio\\staggered.py',
   'PYMODULE'),
  ('asyncio.streams',
   'C:\\Users\\User\\anaconda3\\envs\\MediaPlayerSpecial\\lib\\asyncio\\streams.py',
   'PYMODULE'),
  ('asyncio.subprocess',
   'C:\\Users\\User\\anaconda3\\envs\\MediaPlayerSpecial\\lib\\asyncio\\subprocess.py',
   'PYMODULE'),
  ('asyncio.tasks',
   'C:\\Users\\User\\anaconda3\\envs\\MediaPlayerSpecial\\lib\\asyncio\\tasks.py',
   'PYMODULE'),
  ('asyncio.threads',
   'C:\\Users\\User\\anaconda3\\envs\\MediaPlayerSpecial\\lib\\asyncio\\threads.py',
   'PYMODULE'),
  ('asyncio.transports',
   'C:\\Users\\User\\anaconda3\\envs\\MediaPlayerSpecial\\lib\\asyncio\\transports.py',
   'PYMODULE'),
  ('asyncio.trsock',
   'C:\\Users\\User\\anaconda3\\envs\\MediaPlayerSpecial\\lib\\asyncio\\trsock.py',
   'PYMODULE'),
  ('asyncio.unix_events',
   'C:\\Users\\User\\anaconda3\\envs\\MediaPlayerSpecial\\lib\\asyncio\\unix_events.py',
   'PYMODULE'),
  ('asyncio.windows_events',
   'C:\\Users\\User\\anaconda3\\envs\\MediaPlayerSpecial\\lib\\asyncio\\windows_events.py',
   'PYMODULE'),
  ('asyncio.windows_utils',
   'C:\\Users\\User\\anaconda3\\envs\\MediaPlayerSpecial\\lib\\asyncio\\windows_utils.py',
   'PYMODULE'),
  ('base64',
   'C:\\Users\\User\\anaconda3\\envs\\MediaPlayerSpecial\\lib\\base64.py',
   'PYMODULE'),
  ('bdb',
   'C:\\Users\\User\\anaconda3\\envs\\MediaPlayerSpecial\\lib\\bdb.py',
   'PYMODULE'),
  ('bisect',
   'C:\\Users\\User\\anaconda3\\envs\\MediaPlayerSpecial\\lib\\bisect.py',
   'PYMODULE'),
  ('bz2',
   'C:\\Users\\User\\anaconda3\\envs\\MediaPlayerSpecial\\lib\\bz2.py',
   'PYMODULE'),
  ('calendar',
   'C:\\Users\\User\\anaconda3\\envs\\MediaPlayerSpecial\\lib\\calendar.py',
   'PYMODULE'),
  ('cmd',
   'C:\\Users\\User\\anaconda3\\envs\\MediaPlayerSpecial\\lib\\cmd.py',
   'PYMODULE'),
  ('code',
   'C:\\Users\\User\\anaconda3\\envs\\MediaPlayerSpecial\\lib\\code.py',
   'PYMODULE'),
  ('codeop',
   'C:\\Users\\User\\anaconda3\\envs\\MediaPlayerSpecial\\lib\\codeop.py',
   'PYMODULE'),
  ('colorsys',
   'C:\\Users\\User\\anaconda3\\envs\\MediaPlayerSpecial\\lib\\colorsys.py',
   'PYMODULE'),
  ('concurrent',
   'C:\\Users\\User\\anaconda3\\envs\\MediaPlayerSpecial\\lib\\concurrent\\__init__.py',
   'PYMODULE'),
  ('concurrent.futures',
   'C:\\Users\\User\\anaconda3\\envs\\MediaPlayerSpecial\\lib\\concurrent\\futures\\__init__.py',
   'PYMODULE'),
  ('concurrent.futures._base',
   'C:\\Users\\User\\anaconda3\\envs\\MediaPlayerSpecial\\lib\\concurrent\\futures\\_base.py',
   'PYMODULE'),
  ('concurrent.futures.process',
   'C:\\Users\\User\\anaconda3\\envs\\MediaPlayerSpecial\\lib\\concurrent\\futures\\process.py',
   'PYMODULE'),
  ('concurrent.futures.thread',
   'C:\\Users\\User\\anaconda3\\envs\\MediaPlayerSpecial\\lib\\concurrent\\futures\\thread.py',
   'PYMODULE'),
  ('configparser',
   'C:\\Users\\User\\anaconda3\\envs\\MediaPlayerSpecial\\lib\\configparser.py',
   'PYMODULE'),
  ('contextlib',
   'C:\\Users\\User\\anaconda3\\envs\\MediaPlayerSpecial\\lib\\contextlib.py',
   'PYMODULE'),
  ('contextvars',
   'C:\\Users\\User\\anaconda3\\envs\\MediaPlayerSpecial\\lib\\contextvars.py',
   'PYMODULE'),
  ('copy',
   'C:\\Users\\User\\anaconda3\\envs\\MediaPlayerSpecial\\lib\\copy.py',
   'PYMODULE'),
  ('csv',
   'C:\\Users\\User\\anaconda3\\envs\\MediaPlayerSpecial\\lib\\csv.py',
   'PYMODULE'),
  ('ctypes',
   'C:\\Users\\User\\anaconda3\\envs\\MediaPlayerSpecial\\lib\\ctypes\\__init__.py',
   'PYMODULE'),
  ('ctypes._endian',
   'C:\\Users\\User\\anaconda3\\envs\\MediaPlayerSpecial\\lib\\ctypes\\_endian.py',
   'PYMODULE'),
  ('dataclasses',
   'C:\\Users\\User\\anaconda3\\envs\\MediaPlayerSpecial\\lib\\dataclasses.py',
   'PYMODULE'),
  ('datetime',
   'C:\\Users\\User\\anaconda3\\envs\\MediaPlayerSpecial\\lib\\datetime.py',
   'PYMODULE'),
  ('decimal',
   'C:\\Users\\User\\anaconda3\\envs\\MediaPlayerSpecial\\lib\\decimal.py',
   'PYMODULE'),
  ('difflib',
   'C:\\Users\\User\\anaconda3\\envs\\MediaPlayerSpecial\\lib\\difflib.py',
   'PYMODULE'),
  ('dis',
   'C:\\Users\\User\\anaconda3\\envs\\MediaPlayerSpecial\\lib\\dis.py',
   'PYMODULE'),
  ('doctest',
   'C:\\Users\\User\\anaconda3\\envs\\MediaPlayerSpecial\\lib\\doctest.py',
   'PYMODULE'),
  ('email',
   'C:\\Users\\User\\anaconda3\\envs\\MediaPlayerSpecial\\lib\\email\\__init__.py',
   'PYMODULE'),
  ('email._encoded_words',
   'C:\\Users\\User\\anaconda3\\envs\\MediaPlayerSpecial\\lib\\email\\_encoded_words.py',
   'PYMODULE'),
  ('email._header_value_parser',
   'C:\\Users\\User\\anaconda3\\envs\\MediaPlayerSpecial\\lib\\email\\_header_value_parser.py',
   'PYMODULE'),
  ('email._parseaddr',
   'C:\\Users\\User\\anaconda3\\envs\\MediaPlayerSpecial\\lib\\email\\_parseaddr.py',
   'PYMODULE'),
  ('email._policybase',
   'C:\\Users\\User\\anaconda3\\envs\\MediaPlayerSpecial\\lib\\email\\_policybase.py',
   'PYMODULE'),
  ('email.base64mime',
   'C:\\Users\\User\\anaconda3\\envs\\MediaPlayerSpecial\\lib\\email\\base64mime.py',
   'PYMODULE'),
  ('email.charset',
   'C:\\Users\\User\\anaconda3\\envs\\MediaPlayerSpecial\\lib\\email\\charset.py',
   'PYMODULE'),
  ('email.contentmanager',
   'C:\\Users\\User\\anaconda3\\envs\\MediaPlayerSpecial\\lib\\email\\contentmanager.py',
   'PYMODULE'),
  ('email.encoders',
   'C:\\Users\\User\\anaconda3\\envs\\MediaPlayerSpecial\\lib\\email\\encoders.py',
   'PYMODULE'),
  ('email.errors',
   'C:\\Users\\User\\anaconda3\\envs\\MediaPlayerSpecial\\lib\\email\\errors.py',
   'PYMODULE'),
  ('email.feedparser',
   'C:\\Users\\User\\anaconda3\\envs\\MediaPlayerSpecial\\lib\\email\\feedparser.py',
   'PYMODULE'),
  ('email.generator',
   'C:\\Users\\User\\anaconda3\\envs\\MediaPlayerSpecial\\lib\\email\\generator.py',
   'PYMODULE'),
  ('email.header',
   'C:\\Users\\User\\anaconda3\\envs\\MediaPlayerSpecial\\lib\\email\\header.py',
   'PYMODULE'),
  ('email.headerregistry',
   'C:\\Users\\User\\anaconda3\\envs\\MediaPlayerSpecial\\lib\\email\\headerregistry.py',
   'PYMODULE'),
  ('email.iterators',
   'C:\\Users\\User\\anaconda3\\envs\\MediaPlayerSpecial\\lib\\email\\iterators.py',
   'PYMODULE'),
  ('email.message',
   'C:\\Users\\User\\anaconda3\\envs\\MediaPlayerSpecial\\lib\\email\\message.py',
   'PYMODULE'),
  ('email.parser',
   'C:\\Users\\User\\anaconda3\\envs\\MediaPlayerSpecial\\lib\\email\\parser.py',
   'PYMODULE'),
  ('email.policy',
   'C:\\Users\\User\\anaconda3\\envs\\MediaPlayerSpecial\\lib\\email\\policy.py',
   'PYMODULE'),
  ('email.quoprimime',
   'C:\\Users\\User\\anaconda3\\envs\\MediaPlayerSpecial\\lib\\email\\quoprimime.py',
   'PYMODULE'),
  ('email.utils',
   'C:\\Users\\User\\anaconda3\\envs\\MediaPlayerSpecial\\lib\\email\\utils.py',
   'PYMODULE'),
  ('fnmatch',
   'C:\\Users\\User\\anaconda3\\envs\\MediaPlayerSpecial\\lib\\fnmatch.py',
   'PYMODULE'),
  ('fractions',
   'C:\\Users\\User\\anaconda3\\envs\\MediaPlayerSpecial\\lib\\fractions.py',
   'PYMODULE'),
  ('ftplib',
   'C:\\Users\\User\\anaconda3\\envs\\MediaPlayerSpecial\\lib\\ftplib.py',
   'PYMODULE'),
  ('getopt',
   'C:\\Users\\User\\anaconda3\\envs\\MediaPlayerSpecial\\lib\\getopt.py',
   'PYMODULE'),
  ('getpass',
   'C:\\Users\\User\\anaconda3\\envs\\MediaPlayerSpecial\\lib\\getpass.py',
   'PYMODULE'),
  ('gettext',
   'C:\\Users\\User\\anaconda3\\envs\\MediaPlayerSpecial\\lib\\gettext.py',
   'PYMODULE'),
  ('glob',
   'C:\\Users\\User\\anaconda3\\envs\\MediaPlayerSpecial\\lib\\glob.py',
   'PYMODULE'),
  ('gzip',
   'C:\\Users\\User\\anaconda3\\envs\\MediaPlayerSpecial\\lib\\gzip.py',
   'PYMODULE'),
  ('hashlib',
   'C:\\Users\\User\\anaconda3\\envs\\MediaPlayerSpecial\\lib\\hashlib.py',
   'PYMODULE'),
  ('hmac',
   'C:\\Users\\User\\anaconda3\\envs\\MediaPlayerSpecial\\lib\\hmac.py',
   'PYMODULE'),
  ('html',
   'C:\\Users\\User\\anaconda3\\envs\\MediaPlayerSpecial\\lib\\html\\__init__.py',
   'PYMODULE'),
  ('html.entities',
   'C:\\Users\\User\\anaconda3\\envs\\MediaPlayerSpecial\\lib\\html\\entities.py',
   'PYMODULE'),
  ('http',
   'C:\\Users\\User\\anaconda3\\envs\\MediaPlayerSpecial\\lib\\http\\__init__.py',
   'PYMODULE'),
  ('http.client',
   'C:\\Users\\User\\anaconda3\\envs\\MediaPlayerSpecial\\lib\\http\\client.py',
   'PYMODULE'),
  ('http.cookiejar',
   'C:\\Users\\User\\anaconda3\\envs\\MediaPlayerSpecial\\lib\\http\\cookiejar.py',
   'PYMODULE'),
  ('http.server',
   'C:\\Users\\User\\anaconda3\\envs\\MediaPlayerSpecial\\lib\\http\\server.py',
   'PYMODULE'),
  ('imp',
   'C:\\Users\\User\\anaconda3\\envs\\MediaPlayerSpecial\\lib\\imp.py',
   'PYMODULE'),
  ('importlib',
   'C:\\Users\\User\\anaconda3\\envs\\MediaPlayerSpecial\\lib\\importlib\\__init__.py',
   'PYMODULE'),
  ('importlib._bootstrap',
   'C:\\Users\\User\\anaconda3\\envs\\MediaPlayerSpecial\\lib\\importlib\\_bootstrap.py',
   'PYMODULE'),
  ('importlib._bootstrap_external',
   'C:\\Users\\User\\anaconda3\\envs\\MediaPlayerSpecial\\lib\\importlib\\_bootstrap_external.py',
   'PYMODULE'),
  ('importlib._common',
   'C:\\Users\\User\\anaconda3\\envs\\MediaPlayerSpecial\\lib\\importlib\\_common.py',
   'PYMODULE'),
  ('importlib.abc',
   'C:\\Users\\User\\anaconda3\\envs\\MediaPlayerSpecial\\lib\\importlib\\abc.py',
   'PYMODULE'),
  ('importlib.machinery',
   'C:\\Users\\User\\anaconda3\\envs\\MediaPlayerSpecial\\lib\\importlib\\machinery.py',
   'PYMODULE'),
  ('importlib.metadata',
   'C:\\Users\\User\\anaconda3\\envs\\MediaPlayerSpecial\\lib\\importlib\\metadata.py',
   'PYMODULE'),
  ('importlib.resources',
   'C:\\Users\\User\\anaconda3\\envs\\MediaPlayerSpecial\\lib\\importlib\\resources.py',
   'PYMODULE'),
  ('importlib.util',
   'C:\\Users\\User\\anaconda3\\envs\\MediaPlayerSpecial\\lib\\importlib\\util.py',
   'PYMODULE'),
  ('inspect',
   'C:\\Users\\User\\anaconda3\\envs\\MediaPlayerSpecial\\lib\\inspect.py',
   'PYMODULE'),
  ('json',
   'C:\\Users\\User\\anaconda3\\envs\\MediaPlayerSpecial\\lib\\json\\__init__.py',
   'PYMODULE'),
  ('json.decoder',
   'C:\\Users\\User\\anaconda3\\envs\\MediaPlayerSpecial\\lib\\json\\decoder.py',
   'PYMODULE'),
  ('json.encoder',
   'C:\\Users\\User\\anaconda3\\envs\\MediaPlayerSpecial\\lib\\json\\encoder.py',
   'PYMODULE'),
  ('json.scanner',
   'C:\\Users\\User\\anaconda3\\envs\\MediaPlayerSpecial\\lib\\json\\scanner.py',
   'PYMODULE'),
  ('logging',
   'C:\\Users\\User\\anaconda3\\envs\\MediaPlayerSpecial\\lib\\logging\\__init__.py',
   'PYMODULE'),
  ('lzma',
   'C:\\Users\\User\\anaconda3\\envs\\MediaPlayerSpecial\\lib\\lzma.py',
   'PYMODULE'),
  ('mimetypes',
   'C:\\Users\\User\\anaconda3\\envs\\MediaPlayerSpecial\\lib\\mimetypes.py',
   'PYMODULE'),
  ('multiprocessing',
   'C:\\Users\\User\\anaconda3\\envs\\MediaPlayerSpecial\\lib\\multiprocessing\\__init__.py',
   'PYMODULE'),
  ('multiprocessing.connection',
   'C:\\Users\\User\\anaconda3\\envs\\MediaPlayerSpecial\\lib\\multiprocessing\\connection.py',
   'PYMODULE'),
  ('multiprocessing.context',
   'C:\\Users\\User\\anaconda3\\envs\\MediaPlayerSpecial\\lib\\multiprocessing\\context.py',
   'PYMODULE'),
  ('multiprocessing.dummy',
   'C:\\Users\\User\\anaconda3\\envs\\MediaPlayerSpecial\\lib\\multiprocessing\\dummy\\__init__.py',
   'PYMODULE'),
  ('multiprocessing.dummy.connection',
   'C:\\Users\\User\\anaconda3\\envs\\MediaPlayerSpecial\\lib\\multiprocessing\\dummy\\connection.py',
   'PYMODULE'),
  ('multiprocessing.forkserver',
   'C:\\Users\\User\\anaconda3\\envs\\MediaPlayerSpecial\\lib\\multiprocessing\\forkserver.py',
   'PYMODULE'),
  ('multiprocessing.heap',
   'C:\\Users\\User\\anaconda3\\envs\\MediaPlayerSpecial\\lib\\multiprocessing\\heap.py',
   'PYMODULE'),
  ('multiprocessing.managers',
   'C:\\Users\\User\\anaconda3\\envs\\MediaPlayerSpecial\\lib\\multiprocessing\\managers.py',
   'PYMODULE'),
  ('multiprocessing.pool',
   'C:\\Users\\User\\anaconda3\\envs\\MediaPlayerSpecial\\lib\\multiprocessing\\pool.py',
   'PYMODULE'),
  ('multiprocessing.popen_fork',
   'C:\\Users\\User\\anaconda3\\envs\\MediaPlayerSpecial\\lib\\multiprocessing\\popen_fork.py',
   'PYMODULE'),
  ('multiprocessing.popen_forkserver',
   'C:\\Users\\User\\anaconda3\\envs\\MediaPlayerSpecial\\lib\\multiprocessing\\popen_forkserver.py',
   'PYMODULE'),
  ('multiprocessing.popen_spawn_posix',
   'C:\\Users\\User\\anaconda3\\envs\\MediaPlayerSpecial\\lib\\multiprocessing\\popen_spawn_posix.py',
   'PYMODULE'),
  ('multiprocessing.popen_spawn_win32',
   'C:\\Users\\User\\anaconda3\\envs\\MediaPlayerSpecial\\lib\\multiprocessing\\popen_spawn_win32.py',
   'PYMODULE'),
  ('multiprocessing.process',
   'C:\\Users\\User\\anaconda3\\envs\\MediaPlayerSpecial\\lib\\multiprocessing\\process.py',
   'PYMODULE'),
  ('multiprocessing.queues',
   'C:\\Users\\User\\anaconda3\\envs\\MediaPlayerSpecial\\lib\\multiprocessing\\queues.py',
   'PYMODULE'),
  ('multiprocessing.reduction',
   'C:\\Users\\User\\anaconda3\\envs\\MediaPlayerSpecial\\lib\\multiprocessing\\reduction.py',
   'PYMODULE'),
  ('multiprocessing.resource_sharer',
   'C:\\Users\\User\\anaconda3\\envs\\MediaPlayerSpecial\\lib\\multiprocessing\\resource_sharer.py',
   'PYMODULE'),
  ('multiprocessing.resource_tracker',
   'C:\\Users\\User\\anaconda3\\envs\\MediaPlayerSpecial\\lib\\multiprocessing\\resource_tracker.py',
   'PYMODULE'),
  ('multiprocessing.shared_memory',
   'C:\\Users\\User\\anaconda3\\envs\\MediaPlayerSpecial\\lib\\multiprocessing\\shared_memory.py',
   'PYMODULE'),
  ('multiprocessing.sharedctypes',
   'C:\\Users\\User\\anaconda3\\envs\\MediaPlayerSpecial\\lib\\multiprocessing\\sharedctypes.py',
   'PYMODULE'),
  ('multiprocessing.spawn',
   'C:\\Users\\User\\anaconda3\\envs\\MediaPlayerSpecial\\lib\\multiprocessing\\spawn.py',
   'PYMODULE'),
  ('multiprocessing.synchronize',
   'C:\\Users\\User\\anaconda3\\envs\\MediaPlayerSpecial\\lib\\multiprocessing\\synchronize.py',
   'PYMODULE'),
  ('multiprocessing.util',
   'C:\\Users\\User\\anaconda3\\envs\\MediaPlayerSpecial\\lib\\multiprocessing\\util.py',
   'PYMODULE'),
  ('netrc',
   'C:\\Users\\User\\anaconda3\\envs\\MediaPlayerSpecial\\lib\\netrc.py',
   'PYMODULE'),
  ('nturl2path',
   'C:\\Users\\User\\anaconda3\\envs\\MediaPlayerSpecial\\lib\\nturl2path.py',
   'PYMODULE'),
  ('numbers',
   'C:\\Users\\User\\anaconda3\\envs\\MediaPlayerSpecial\\lib\\numbers.py',
   'PYMODULE'),
  ('numpy',
   'C:\\Users\\User\\anaconda3\\envs\\MediaPlayerSpecial\\lib\\site-packages\\numpy\\__init__.py',
   'PYMODULE'),
  ('numpy.__config__',
   'C:\\Users\\User\\anaconda3\\envs\\MediaPlayerSpecial\\lib\\site-packages\\numpy\\__config__.py',
   'PYMODULE'),
  ('numpy._distributor_init',
   'C:\\Users\\User\\anaconda3\\envs\\MediaPlayerSpecial\\lib\\site-packages\\numpy\\_distributor_init.py',
   'PYMODULE'),
  ('numpy._globals',
   'C:\\Users\\User\\anaconda3\\envs\\MediaPlayerSpecial\\lib\\site-packages\\numpy\\_globals.py',
   'PYMODULE'),
  ('numpy._pytesttester',
   'C:\\Users\\User\\anaconda3\\envs\\MediaPlayerSpecial\\lib\\site-packages\\numpy\\_pytesttester.py',
   'PYMODULE'),
  ('numpy._typing',
   'C:\\Users\\User\\anaconda3\\envs\\MediaPlayerSpecial\\lib\\site-packages\\numpy\\_typing\\__init__.py',
   'PYMODULE'),
  ('numpy._typing._add_docstring',
   'C:\\Users\\User\\anaconda3\\envs\\MediaPlayerSpecial\\lib\\site-packages\\numpy\\_typing\\_add_docstring.py',
   'PYMODULE'),
  ('numpy._typing._array_like',
   'C:\\Users\\User\\anaconda3\\envs\\MediaPlayerSpecial\\lib\\site-packages\\numpy\\_typing\\_array_like.py',
   'PYMODULE'),
  ('numpy._typing._char_codes',
   'C:\\Users\\User\\anaconda3\\envs\\MediaPlayerSpecial\\lib\\site-packages\\numpy\\_typing\\_char_codes.py',
   'PYMODULE'),
  ('numpy._typing._dtype_like',
   'C:\\Users\\User\\anaconda3\\envs\\MediaPlayerSpecial\\lib\\site-packages\\numpy\\_typing\\_dtype_like.py',
   'PYMODULE'),
  ('numpy._typing._nbit',
   'C:\\Users\\User\\anaconda3\\envs\\MediaPlayerSpecial\\lib\\site-packages\\numpy\\_typing\\_nbit.py',
   'PYMODULE'),
  ('numpy._typing._nested_sequence',
   'C:\\Users\\User\\anaconda3\\envs\\MediaPlayerSpecial\\lib\\site-packages\\numpy\\_typing\\_nested_sequence.py',
   'PYMODULE'),
  ('numpy._typing._scalars',
   'C:\\Users\\User\\anaconda3\\envs\\MediaPlayerSpecial\\lib\\site-packages\\numpy\\_typing\\_scalars.py',
   'PYMODULE'),
  ('numpy._typing._shape',
   'C:\\Users\\User\\anaconda3\\envs\\MediaPlayerSpecial\\lib\\site-packages\\numpy\\_typing\\_shape.py',
   'PYMODULE'),
  ('numpy._utils',
   'C:\\Users\\User\\anaconda3\\envs\\MediaPlayerSpecial\\lib\\site-packages\\numpy\\_utils\\__init__.py',
   'PYMODULE'),
  ('numpy._utils._convertions',
   'C:\\Users\\User\\anaconda3\\envs\\MediaPlayerSpecial\\lib\\site-packages\\numpy\\_utils\\_convertions.py',
   'PYMODULE'),
  ('numpy._utils._inspect',
   'C:\\Users\\User\\anaconda3\\envs\\MediaPlayerSpecial\\lib\\site-packages\\numpy\\_utils\\_inspect.py',
   'PYMODULE'),
  ('numpy.array_api',
   'C:\\Users\\User\\anaconda3\\envs\\MediaPlayerSpecial\\lib\\site-packages\\numpy\\array_api\\__init__.py',
   'PYMODULE'),
  ('numpy.array_api._array_object',
   'C:\\Users\\User\\anaconda3\\envs\\MediaPlayerSpecial\\lib\\site-packages\\numpy\\array_api\\_array_object.py',
   'PYMODULE'),
  ('numpy.array_api._constants',
   'C:\\Users\\User\\anaconda3\\envs\\MediaPlayerSpecial\\lib\\site-packages\\numpy\\array_api\\_constants.py',
   'PYMODULE'),
  ('numpy.array_api._creation_functions',
   'C:\\Users\\User\\anaconda3\\envs\\MediaPlayerSpecial\\lib\\site-packages\\numpy\\array_api\\_creation_functions.py',
   'PYMODULE'),
  ('numpy.array_api._data_type_functions',
   'C:\\Users\\User\\anaconda3\\envs\\MediaPlayerSpecial\\lib\\site-packages\\numpy\\array_api\\_data_type_functions.py',
   'PYMODULE'),
  ('numpy.array_api._dtypes',
   'C:\\Users\\User\\anaconda3\\envs\\MediaPlayerSpecial\\lib\\site-packages\\numpy\\array_api\\_dtypes.py',
   'PYMODULE'),
  ('numpy.array_api._elementwise_functions',
   'C:\\Users\\User\\anaconda3\\envs\\MediaPlayerSpecial\\lib\\site-packages\\numpy\\array_api\\_elementwise_functions.py',
   'PYMODULE'),
  ('numpy.array_api._indexing_functions',
   'C:\\Users\\User\\anaconda3\\envs\\MediaPlayerSpecial\\lib\\site-packages\\numpy\\array_api\\_indexing_functions.py',
   'PYMODULE'),
  ('numpy.array_api._manipulation_functions',
   'C:\\Users\\User\\anaconda3\\envs\\MediaPlayerSpecial\\lib\\site-packages\\numpy\\array_api\\_manipulation_functions.py',
   'PYMODULE'),
  ('numpy.array_api._searching_functions',
   'C:\\Users\\User\\anaconda3\\envs\\MediaPlayerSpecial\\lib\\site-packages\\numpy\\array_api\\_searching_functions.py',
   'PYMODULE'),
  ('numpy.array_api._set_functions',
   'C:\\Users\\User\\anaconda3\\envs\\MediaPlayerSpecial\\lib\\site-packages\\numpy\\array_api\\_set_functions.py',
   'PYMODULE'),
  ('numpy.array_api._sorting_functions',
   'C:\\Users\\User\\anaconda3\\envs\\MediaPlayerSpecial\\lib\\site-packages\\numpy\\array_api\\_sorting_functions.py',
   'PYMODULE'),
  ('numpy.array_api._statistical_functions',
   'C:\\Users\\User\\anaconda3\\envs\\MediaPlayerSpecial\\lib\\site-packages\\numpy\\array_api\\_statistical_functions.py',
   'PYMODULE'),
  ('numpy.array_api._typing',
   'C:\\Users\\User\\anaconda3\\envs\\MediaPlayerSpecial\\lib\\site-packages\\numpy\\array_api\\_typing.py',
   'PYMODULE'),
  ('numpy.array_api._utility_functions',
   'C:\\Users\\User\\anaconda3\\envs\\MediaPlayerSpecial\\lib\\site-packages\\numpy\\array_api\\_utility_functions.py',
   'PYMODULE'),
  ('numpy.array_api.linalg',
   'C:\\Users\\User\\anaconda3\\envs\\MediaPlayerSpecial\\lib\\site-packages\\numpy\\array_api\\linalg.py',
   'PYMODULE'),
  ('numpy.compat',
   'C:\\Users\\User\\anaconda3\\envs\\MediaPlayerSpecial\\lib\\site-packages\\numpy\\compat\\__init__.py',
   'PYMODULE'),
  ('numpy.compat.py3k',
   'C:\\Users\\User\\anaconda3\\envs\\MediaPlayerSpecial\\lib\\site-packages\\numpy\\compat\\py3k.py',
   'PYMODULE'),
  ('numpy.core',
   'C:\\Users\\User\\anaconda3\\envs\\MediaPlayerSpecial\\lib\\site-packages\\numpy\\core\\__init__.py',
   'PYMODULE'),
  ('numpy.core._add_newdocs',
   'C:\\Users\\User\\anaconda3\\envs\\MediaPlayerSpecial\\lib\\site-packages\\numpy\\core\\_add_newdocs.py',
   'PYMODULE'),
  ('numpy.core._add_newdocs_scalars',
   'C:\\Users\\User\\anaconda3\\envs\\MediaPlayerSpecial\\lib\\site-packages\\numpy\\core\\_add_newdocs_scalars.py',
   'PYMODULE'),
  ('numpy.core._asarray',
   'C:\\Users\\User\\anaconda3\\envs\\MediaPlayerSpecial\\lib\\site-packages\\numpy\\core\\_asarray.py',
   'PYMODULE'),
  ('numpy.core._dtype',
   'C:\\Users\\User\\anaconda3\\envs\\MediaPlayerSpecial\\lib\\site-packages\\numpy\\core\\_dtype.py',
   'PYMODULE'),
  ('numpy.core._dtype_ctypes',
   'C:\\Users\\User\\anaconda3\\envs\\MediaPlayerSpecial\\lib\\site-packages\\numpy\\core\\_dtype_ctypes.py',
   'PYMODULE'),
  ('numpy.core._exceptions',
   'C:\\Users\\User\\anaconda3\\envs\\MediaPlayerSpecial\\lib\\site-packages\\numpy\\core\\_exceptions.py',
   'PYMODULE'),
  ('numpy.core._internal',
   'C:\\Users\\User\\anaconda3\\envs\\MediaPlayerSpecial\\lib\\site-packages\\numpy\\core\\_internal.py',
   'PYMODULE'),
  ('numpy.core._machar',
   'C:\\Users\\User\\anaconda3\\envs\\MediaPlayerSpecial\\lib\\site-packages\\numpy\\core\\_machar.py',
   'PYMODULE'),
  ('numpy.core._methods',
   'C:\\Users\\User\\anaconda3\\envs\\MediaPlayerSpecial\\lib\\site-packages\\numpy\\core\\_methods.py',
   'PYMODULE'),
  ('numpy.core._string_helpers',
   'C:\\Users\\User\\anaconda3\\envs\\MediaPlayerSpecial\\lib\\site-packages\\numpy\\core\\_string_helpers.py',
   'PYMODULE'),
  ('numpy.core._type_aliases',
   'C:\\Users\\User\\anaconda3\\envs\\MediaPlayerSpecial\\lib\\site-packages\\numpy\\core\\_type_aliases.py',
   'PYMODULE'),
  ('numpy.core._ufunc_config',
   'C:\\Users\\User\\anaconda3\\envs\\MediaPlayerSpecial\\lib\\site-packages\\numpy\\core\\_ufunc_config.py',
   'PYMODULE'),
  ('numpy.core.arrayprint',
   'C:\\Users\\User\\anaconda3\\envs\\MediaPlayerSpecial\\lib\\site-packages\\numpy\\core\\arrayprint.py',
   'PYMODULE'),
  ('numpy.core.defchararray',
   'C:\\Users\\User\\anaconda3\\envs\\MediaPlayerSpecial\\lib\\site-packages\\numpy\\core\\defchararray.py',
   'PYMODULE'),
  ('numpy.core.einsumfunc',
   'C:\\Users\\User\\anaconda3\\envs\\MediaPlayerSpecial\\lib\\site-packages\\numpy\\core\\einsumfunc.py',
   'PYMODULE'),
  ('numpy.core.fromnumeric',
   'C:\\Users\\User\\anaconda3\\envs\\MediaPlayerSpecial\\lib\\site-packages\\numpy\\core\\fromnumeric.py',
   'PYMODULE'),
  ('numpy.core.function_base',
   'C:\\Users\\User\\anaconda3\\envs\\MediaPlayerSpecial\\lib\\site-packages\\numpy\\core\\function_base.py',
   'PYMODULE'),
  ('numpy.core.getlimits',
   'C:\\Users\\User\\anaconda3\\envs\\MediaPlayerSpecial\\lib\\site-packages\\numpy\\core\\getlimits.py',
   'PYMODULE'),
  ('numpy.core.memmap',
   'C:\\Users\\User\\anaconda3\\envs\\MediaPlayerSpecial\\lib\\site-packages\\numpy\\core\\memmap.py',
   'PYMODULE'),
  ('numpy.core.multiarray',
   'C:\\Users\\User\\anaconda3\\envs\\MediaPlayerSpecial\\lib\\site-packages\\numpy\\core\\multiarray.py',
   'PYMODULE'),
  ('numpy.core.numeric',
   'C:\\Users\\User\\anaconda3\\envs\\MediaPlayerSpecial\\lib\\site-packages\\numpy\\core\\numeric.py',
   'PYMODULE'),
  ('numpy.core.numerictypes',
   'C:\\Users\\User\\anaconda3\\envs\\MediaPlayerSpecial\\lib\\site-packages\\numpy\\core\\numerictypes.py',
   'PYMODULE'),
  ('numpy.core.overrides',
   'C:\\Users\\User\\anaconda3\\envs\\MediaPlayerSpecial\\lib\\site-packages\\numpy\\core\\overrides.py',
   'PYMODULE'),
  ('numpy.core.records',
   'C:\\Users\\User\\anaconda3\\envs\\MediaPlayerSpecial\\lib\\site-packages\\numpy\\core\\records.py',
   'PYMODULE'),
  ('numpy.core.shape_base',
   'C:\\Users\\User\\anaconda3\\envs\\MediaPlayerSpecial\\lib\\site-packages\\numpy\\core\\shape_base.py',
   'PYMODULE'),
  ('numpy.core.umath',
   'C:\\Users\\User\\anaconda3\\envs\\MediaPlayerSpecial\\lib\\site-packages\\numpy\\core\\umath.py',
   'PYMODULE'),
  ('numpy.ctypeslib',
   'C:\\Users\\User\\anaconda3\\envs\\MediaPlayerSpecial\\lib\\site-packages\\numpy\\ctypeslib.py',
   'PYMODULE'),
  ('numpy.dtypes',
   'C:\\Users\\User\\anaconda3\\envs\\MediaPlayerSpecial\\lib\\site-packages\\numpy\\dtypes.py',
   'PYMODULE'),
  ('numpy.exceptions',
   'C:\\Users\\User\\anaconda3\\envs\\MediaPlayerSpecial\\lib\\site-packages\\numpy\\exceptions.py',
   'PYMODULE'),
  ('numpy.fft',
   'C:\\Users\\User\\anaconda3\\envs\\MediaPlayerSpecial\\lib\\site-packages\\numpy\\fft\\__init__.py',
   'PYMODULE'),
  ('numpy.fft._pocketfft',
   'C:\\Users\\User\\anaconda3\\envs\\MediaPlayerSpecial\\lib\\site-packages\\numpy\\fft\\_pocketfft.py',
   'PYMODULE'),
  ('numpy.fft.helper',
   'C:\\Users\\User\\anaconda3\\envs\\MediaPlayerSpecial\\lib\\site-packages\\numpy\\fft\\helper.py',
   'PYMODULE'),
  ('numpy.lib',
   'C:\\Users\\User\\anaconda3\\envs\\MediaPlayerSpecial\\lib\\site-packages\\numpy\\lib\\__init__.py',
   'PYMODULE'),
  ('numpy.lib._datasource',
   'C:\\Users\\User\\anaconda3\\envs\\MediaPlayerSpecial\\lib\\site-packages\\numpy\\lib\\_datasource.py',
   'PYMODULE'),
  ('numpy.lib._iotools',
   'C:\\Users\\User\\anaconda3\\envs\\MediaPlayerSpecial\\lib\\site-packages\\numpy\\lib\\_iotools.py',
   'PYMODULE'),
  ('numpy.lib._version',
   'C:\\Users\\User\\anaconda3\\envs\\MediaPlayerSpecial\\lib\\site-packages\\numpy\\lib\\_version.py',
   'PYMODULE'),
  ('numpy.lib.arraypad',
   'C:\\Users\\User\\anaconda3\\envs\\MediaPlayerSpecial\\lib\\site-packages\\numpy\\lib\\arraypad.py',
   'PYMODULE'),
  ('numpy.lib.arraysetops',
   'C:\\Users\\User\\anaconda3\\envs\\MediaPlayerSpecial\\lib\\site-packages\\numpy\\lib\\arraysetops.py',
   'PYMODULE'),
  ('numpy.lib.arrayterator',
   'C:\\Users\\User\\anaconda3\\envs\\MediaPlayerSpecial\\lib\\site-packages\\numpy\\lib\\arrayterator.py',
   'PYMODULE'),
  ('numpy.lib.format',
   'C:\\Users\\User\\anaconda3\\envs\\MediaPlayerSpecial\\lib\\site-packages\\numpy\\lib\\format.py',
   'PYMODULE'),
  ('numpy.lib.function_base',
   'C:\\Users\\User\\anaconda3\\envs\\MediaPlayerSpecial\\lib\\site-packages\\numpy\\lib\\function_base.py',
   'PYMODULE'),
  ('numpy.lib.histograms',
   'C:\\Users\\User\\anaconda3\\envs\\MediaPlayerSpecial\\lib\\site-packages\\numpy\\lib\\histograms.py',
   'PYMODULE'),
  ('numpy.lib.index_tricks',
   'C:\\Users\\User\\anaconda3\\envs\\MediaPlayerSpecial\\lib\\site-packages\\numpy\\lib\\index_tricks.py',
   'PYMODULE'),
  ('numpy.lib.mixins',
   'C:\\Users\\User\\anaconda3\\envs\\MediaPlayerSpecial\\lib\\site-packages\\numpy\\lib\\mixins.py',
   'PYMODULE'),
  ('numpy.lib.nanfunctions',
   'C:\\Users\\User\\anaconda3\\envs\\MediaPlayerSpecial\\lib\\site-packages\\numpy\\lib\\nanfunctions.py',
   'PYMODULE'),
  ('numpy.lib.npyio',
   'C:\\Users\\User\\anaconda3\\envs\\MediaPlayerSpecial\\lib\\site-packages\\numpy\\lib\\npyio.py',
   'PYMODULE'),
  ('numpy.lib.polynomial',
   'C:\\Users\\User\\anaconda3\\envs\\MediaPlayerSpecial\\lib\\site-packages\\numpy\\lib\\polynomial.py',
   'PYMODULE'),
  ('numpy.lib.recfunctions',
   'C:\\Users\\User\\anaconda3\\envs\\MediaPlayerSpecial\\lib\\site-packages\\numpy\\lib\\recfunctions.py',
   'PYMODULE'),
  ('numpy.lib.scimath',
   'C:\\Users\\User\\anaconda3\\envs\\MediaPlayerSpecial\\lib\\site-packages\\numpy\\lib\\scimath.py',
   'PYMODULE'),
  ('numpy.lib.shape_base',
   'C:\\Users\\User\\anaconda3\\envs\\MediaPlayerSpecial\\lib\\site-packages\\numpy\\lib\\shape_base.py',
   'PYMODULE'),
  ('numpy.lib.stride_tricks',
   'C:\\Users\\User\\anaconda3\\envs\\MediaPlayerSpecial\\lib\\site-packages\\numpy\\lib\\stride_tricks.py',
   'PYMODULE'),
  ('numpy.lib.twodim_base',
   'C:\\Users\\User\\anaconda3\\envs\\MediaPlayerSpecial\\lib\\site-packages\\numpy\\lib\\twodim_base.py',
   'PYMODULE'),
  ('numpy.lib.type_check',
   'C:\\Users\\User\\anaconda3\\envs\\MediaPlayerSpecial\\lib\\site-packages\\numpy\\lib\\type_check.py',
   'PYMODULE'),
  ('numpy.lib.ufunclike',
   'C:\\Users\\User\\anaconda3\\envs\\MediaPlayerSpecial\\lib\\site-packages\\numpy\\lib\\ufunclike.py',
   'PYMODULE'),
  ('numpy.lib.utils',
   'C:\\Users\\User\\anaconda3\\envs\\MediaPlayerSpecial\\lib\\site-packages\\numpy\\lib\\utils.py',
   'PYMODULE'),
  ('numpy.linalg',
   'C:\\Users\\User\\anaconda3\\envs\\MediaPlayerSpecial\\lib\\site-packages\\numpy\\linalg\\__init__.py',
   'PYMODULE'),
  ('numpy.linalg.linalg',
   'C:\\Users\\User\\anaconda3\\envs\\MediaPlayerSpecial\\lib\\site-packages\\numpy\\linalg\\linalg.py',
   'PYMODULE'),
  ('numpy.ma',
   'C:\\Users\\User\\anaconda3\\envs\\MediaPlayerSpecial\\lib\\site-packages\\numpy\\ma\\__init__.py',
   'PYMODULE'),
  ('numpy.ma.core',
   'C:\\Users\\User\\anaconda3\\envs\\MediaPlayerSpecial\\lib\\site-packages\\numpy\\ma\\core.py',
   'PYMODULE'),
  ('numpy.ma.extras',
   'C:\\Users\\User\\anaconda3\\envs\\MediaPlayerSpecial\\lib\\site-packages\\numpy\\ma\\extras.py',
   'PYMODULE'),
  ('numpy.ma.mrecords',
   'C:\\Users\\User\\anaconda3\\envs\\MediaPlayerSpecial\\lib\\site-packages\\numpy\\ma\\mrecords.py',
   'PYMODULE'),
  ('numpy.matrixlib',
   'C:\\Users\\User\\anaconda3\\envs\\MediaPlayerSpecial\\lib\\site-packages\\numpy\\matrixlib\\__init__.py',
   'PYMODULE'),
  ('numpy.matrixlib.defmatrix',
   'C:\\Users\\User\\anaconda3\\envs\\MediaPlayerSpecial\\lib\\site-packages\\numpy\\matrixlib\\defmatrix.py',
   'PYMODULE'),
  ('numpy.polynomial',
   'C:\\Users\\User\\anaconda3\\envs\\MediaPlayerSpecial\\lib\\site-packages\\numpy\\polynomial\\__init__.py',
   'PYMODULE'),
  ('numpy.polynomial._polybase',
   'C:\\Users\\User\\anaconda3\\envs\\MediaPlayerSpecial\\lib\\site-packages\\numpy\\polynomial\\_polybase.py',
   'PYMODULE'),
  ('numpy.polynomial.chebyshev',
   'C:\\Users\\User\\anaconda3\\envs\\MediaPlayerSpecial\\lib\\site-packages\\numpy\\polynomial\\chebyshev.py',
   'PYMODULE'),
  ('numpy.polynomial.hermite',
   'C:\\Users\\User\\anaconda3\\envs\\MediaPlayerSpecial\\lib\\site-packages\\numpy\\polynomial\\hermite.py',
   'PYMODULE'),
  ('numpy.polynomial.hermite_e',
   'C:\\Users\\User\\anaconda3\\envs\\MediaPlayerSpecial\\lib\\site-packages\\numpy\\polynomial\\hermite_e.py',
   'PYMODULE'),
  ('numpy.polynomial.laguerre',
   'C:\\Users\\User\\anaconda3\\envs\\MediaPlayerSpecial\\lib\\site-packages\\numpy\\polynomial\\laguerre.py',
   'PYMODULE'),
  ('numpy.polynomial.legendre',
   'C:\\Users\\User\\anaconda3\\envs\\MediaPlayerSpecial\\lib\\site-packages\\numpy\\polynomial\\legendre.py',
   'PYMODULE'),
  ('numpy.polynomial.polynomial',
   'C:\\Users\\User\\anaconda3\\envs\\MediaPlayerSpecial\\lib\\site-packages\\numpy\\polynomial\\polynomial.py',
   'PYMODULE'),
  ('numpy.polynomial.polyutils',
   'C:\\Users\\User\\anaconda3\\envs\\MediaPlayerSpecial\\lib\\site-packages\\numpy\\polynomial\\polyutils.py',
   'PYMODULE'),
  ('numpy.random',
   'C:\\Users\\User\\anaconda3\\envs\\MediaPlayerSpecial\\lib\\site-packages\\numpy\\random\\__init__.py',
   'PYMODULE'),
  ('numpy.random._pickle',
   'C:\\Users\\User\\anaconda3\\envs\\MediaPlayerSpecial\\lib\\site-packages\\numpy\\random\\_pickle.py',
   'PYMODULE'),
  ('numpy.testing',
   'C:\\Users\\User\\anaconda3\\envs\\MediaPlayerSpecial\\lib\\site-packages\\numpy\\testing\\__init__.py',
   'PYMODULE'),
  ('numpy.testing._private',
   'C:\\Users\\User\\anaconda3\\envs\\MediaPlayerSpecial\\lib\\site-packages\\numpy\\testing\\_private\\__init__.py',
   'PYMODULE'),
  ('numpy.testing._private.extbuild',
   'C:\\Users\\User\\anaconda3\\envs\\MediaPlayerSpecial\\lib\\site-packages\\numpy\\testing\\_private\\extbuild.py',
   'PYMODULE'),
  ('numpy.testing._private.utils',
   'C:\\Users\\User\\anaconda3\\envs\\MediaPlayerSpecial\\lib\\site-packages\\numpy\\testing\\_private\\utils.py',
   'PYMODULE'),
  ('numpy.testing.overrides',
   'C:\\Users\\User\\anaconda3\\envs\\MediaPlayerSpecial\\lib\\site-packages\\numpy\\testing\\overrides.py',
   'PYMODULE'),
  ('numpy.typing',
   'C:\\Users\\User\\anaconda3\\envs\\MediaPlayerSpecial\\lib\\site-packages\\numpy\\typing\\__init__.py',
   'PYMODULE'),
  ('numpy.version',
   'C:\\Users\\User\\anaconda3\\envs\\MediaPlayerSpecial\\lib\\site-packages\\numpy\\version.py',
   'PYMODULE'),
  ('opcode',
   'C:\\Users\\User\\anaconda3\\envs\\MediaPlayerSpecial\\lib\\opcode.py',
   'PYMODULE'),
  ('optparse',
   'C:\\Users\\User\\anaconda3\\envs\\MediaPlayerSpecial\\lib\\optparse.py',
   'PYMODULE'),
  ('packaging',
   'C:\\Users\\User\\anaconda3\\envs\\MediaPlayerSpecial\\lib\\site-packages\\packaging\\__init__.py',
   'PYMODULE'),
  ('packaging._elffile',
   'C:\\Users\\User\\anaconda3\\envs\\MediaPlayerSpecial\\lib\\site-packages\\packaging\\_elffile.py',
   'PYMODULE'),
  ('packaging._manylinux',
   'C:\\Users\\User\\anaconda3\\envs\\MediaPlayerSpecial\\lib\\site-packages\\packaging\\_manylinux.py',
   'PYMODULE'),
  ('packaging._musllinux',
   'C:\\Users\\User\\anaconda3\\envs\\MediaPlayerSpecial\\lib\\site-packages\\packaging\\_musllinux.py',
   'PYMODULE'),
  ('packaging._parser',
   'C:\\Users\\User\\anaconda3\\envs\\MediaPlayerSpecial\\lib\\site-packages\\packaging\\_parser.py',
   'PYMODULE'),
  ('packaging._structures',
   'C:\\Users\\User\\anaconda3\\envs\\MediaPlayerSpecial\\lib\\site-packages\\packaging\\_structures.py',
   'PYMODULE'),
  ('packaging._tokenizer',
   'C:\\Users\\User\\anaconda3\\envs\\MediaPlayerSpecial\\lib\\site-packages\\packaging\\_tokenizer.py',
   'PYMODULE'),
  ('packaging.markers',
   'C:\\Users\\User\\anaconda3\\envs\\MediaPlayerSpecial\\lib\\site-packages\\packaging\\markers.py',
   'PYMODULE'),
  ('packaging.metadata',
   'C:\\Users\\User\\anaconda3\\envs\\MediaPlayerSpecial\\lib\\site-packages\\packaging\\metadata.py',
   'PYMODULE'),
  ('packaging.requirements',
   'C:\\Users\\User\\anaconda3\\envs\\MediaPlayerSpecial\\lib\\site-packages\\packaging\\requirements.py',
   'PYMODULE'),
  ('packaging.specifiers',
   'C:\\Users\\User\\anaconda3\\envs\\MediaPlayerSpecial\\lib\\site-packages\\packaging\\specifiers.py',
   'PYMODULE'),
  ('packaging.tags',
   'C:\\Users\\User\\anaconda3\\envs\\MediaPlayerSpecial\\lib\\site-packages\\packaging\\tags.py',
   'PYMODULE'),
  ('packaging.utils',
   'C:\\Users\\User\\anaconda3\\envs\\MediaPlayerSpecial\\lib\\site-packages\\packaging\\utils.py',
   'PYMODULE'),
  ('packaging.version',
   'C:\\Users\\User\\anaconda3\\envs\\MediaPlayerSpecial\\lib\\site-packages\\packaging\\version.py',
   'PYMODULE'),
  ('pathlib',
   'C:\\Users\\User\\anaconda3\\envs\\MediaPlayerSpecial\\lib\\pathlib.py',
   'PYMODULE'),
  ('pdb',
   'C:\\Users\\User\\anaconda3\\envs\\MediaPlayerSpecial\\lib\\pdb.py',
   'PYMODULE'),
  ('pickle',
   'C:\\Users\\User\\anaconda3\\envs\\MediaPlayerSpecial\\lib\\pickle.py',
   'PYMODULE'),
  ('pkg_resources',
   'C:\\Users\\User\\anaconda3\\envs\\MediaPlayerSpecial\\lib\\site-packages\\pkg_resources\\__init__.py',
   'PYMODULE'),
  ('pkg_resources._vendor',
   'C:\\Users\\User\\anaconda3\\envs\\MediaPlayerSpecial\\lib\\site-packages\\pkg_resources\\_vendor\\__init__.py',
   'PYMODULE'),
  ('pkg_resources._vendor.importlib_resources',
   'C:\\Users\\User\\anaconda3\\envs\\MediaPlayerSpecial\\lib\\site-packages\\pkg_resources\\_vendor\\importlib_resources\\__init__.py',
   'PYMODULE'),
  ('pkg_resources._vendor.importlib_resources._adapters',
   'C:\\Users\\User\\anaconda3\\envs\\MediaPlayerSpecial\\lib\\site-packages\\pkg_resources\\_vendor\\importlib_resources\\_adapters.py',
   'PYMODULE'),
  ('pkg_resources._vendor.importlib_resources._common',
   'C:\\Users\\User\\anaconda3\\envs\\MediaPlayerSpecial\\lib\\site-packages\\pkg_resources\\_vendor\\importlib_resources\\_common.py',
   'PYMODULE'),
  ('pkg_resources._vendor.importlib_resources._compat',
   'C:\\Users\\User\\anaconda3\\envs\\MediaPlayerSpecial\\lib\\site-packages\\pkg_resources\\_vendor\\importlib_resources\\_compat.py',
   'PYMODULE'),
  ('pkg_resources._vendor.importlib_resources._itertools',
   'C:\\Users\\User\\anaconda3\\envs\\MediaPlayerSpecial\\lib\\site-packages\\pkg_resources\\_vendor\\importlib_resources\\_itertools.py',
   'PYMODULE'),
  ('pkg_resources._vendor.importlib_resources._legacy',
   'C:\\Users\\User\\anaconda3\\envs\\MediaPlayerSpecial\\lib\\site-packages\\pkg_resources\\_vendor\\importlib_resources\\_legacy.py',
   'PYMODULE'),
  ('pkg_resources._vendor.importlib_resources.abc',
   'C:\\Users\\User\\anaconda3\\envs\\MediaPlayerSpecial\\lib\\site-packages\\pkg_resources\\_vendor\\importlib_resources\\abc.py',
   'PYMODULE'),
  ('pkg_resources._vendor.importlib_resources.readers',
   'C:\\Users\\User\\anaconda3\\envs\\MediaPlayerSpecial\\lib\\site-packages\\pkg_resources\\_vendor\\importlib_resources\\readers.py',
   'PYMODULE'),
  ('pkg_resources._vendor.importlib_resources.simple',
   'C:\\Users\\User\\anaconda3\\envs\\MediaPlayerSpecial\\lib\\site-packages\\pkg_resources\\_vendor\\importlib_resources\\simple.py',
   'PYMODULE'),
  ('pkg_resources._vendor.jaraco',
   'C:\\Users\\User\\anaconda3\\envs\\MediaPlayerSpecial\\lib\\site-packages\\pkg_resources\\_vendor\\jaraco\\__init__.py',
   'PYMODULE'),
  ('pkg_resources._vendor.jaraco.context',
   'C:\\Users\\User\\anaconda3\\envs\\MediaPlayerSpecial\\lib\\site-packages\\pkg_resources\\_vendor\\jaraco\\context.py',
   'PYMODULE'),
  ('pkg_resources._vendor.jaraco.functools',
   'C:\\Users\\User\\anaconda3\\envs\\MediaPlayerSpecial\\lib\\site-packages\\pkg_resources\\_vendor\\jaraco\\functools.py',
   'PYMODULE'),
  ('pkg_resources._vendor.jaraco.text',
   'C:\\Users\\User\\anaconda3\\envs\\MediaPlayerSpecial\\lib\\site-packages\\pkg_resources\\_vendor\\jaraco\\text\\__init__.py',
   'PYMODULE'),
  ('pkg_resources._vendor.more_itertools',
   'C:\\Users\\User\\anaconda3\\envs\\MediaPlayerSpecial\\lib\\site-packages\\pkg_resources\\_vendor\\more_itertools\\__init__.py',
   'PYMODULE'),
  ('pkg_resources._vendor.more_itertools.more',
   'C:\\Users\\User\\anaconda3\\envs\\MediaPlayerSpecial\\lib\\site-packages\\pkg_resources\\_vendor\\more_itertools\\more.py',
   'PYMODULE'),
  ('pkg_resources._vendor.more_itertools.recipes',
   'C:\\Users\\User\\anaconda3\\envs\\MediaPlayerSpecial\\lib\\site-packages\\pkg_resources\\_vendor\\more_itertools\\recipes.py',
   'PYMODULE'),
  ('pkg_resources._vendor.packaging',
   'C:\\Users\\User\\anaconda3\\envs\\MediaPlayerSpecial\\lib\\site-packages\\pkg_resources\\_vendor\\packaging\\__init__.py',
   'PYMODULE'),
  ('pkg_resources._vendor.packaging._elffile',
   'C:\\Users\\User\\anaconda3\\envs\\MediaPlayerSpecial\\lib\\site-packages\\pkg_resources\\_vendor\\packaging\\_elffile.py',
   'PYMODULE'),
  ('pkg_resources._vendor.packaging._manylinux',
   'C:\\Users\\User\\anaconda3\\envs\\MediaPlayerSpecial\\lib\\site-packages\\pkg_resources\\_vendor\\packaging\\_manylinux.py',
   'PYMODULE'),
  ('pkg_resources._vendor.packaging._musllinux',
   'C:\\Users\\User\\anaconda3\\envs\\MediaPlayerSpecial\\lib\\site-packages\\pkg_resources\\_vendor\\packaging\\_musllinux.py',
   'PYMODULE'),
  ('pkg_resources._vendor.packaging._parser',
   'C:\\Users\\User\\anaconda3\\envs\\MediaPlayerSpecial\\lib\\site-packages\\pkg_resources\\_vendor\\packaging\\_parser.py',
   'PYMODULE'),
  ('pkg_resources._vendor.packaging._structures',
   'C:\\Users\\User\\anaconda3\\envs\\MediaPlayerSpecial\\lib\\site-packages\\pkg_resources\\_vendor\\packaging\\_structures.py',
   'PYMODULE'),
  ('pkg_resources._vendor.packaging._tokenizer',
   'C:\\Users\\User\\anaconda3\\envs\\MediaPlayerSpecial\\lib\\site-packages\\pkg_resources\\_vendor\\packaging\\_tokenizer.py',
   'PYMODULE'),
  ('pkg_resources._vendor.packaging.markers',
   'C:\\Users\\User\\anaconda3\\envs\\MediaPlayerSpecial\\lib\\site-packages\\pkg_resources\\_vendor\\packaging\\markers.py',
   'PYMODULE'),
  ('pkg_resources._vendor.packaging.metadata',
   'C:\\Users\\User\\anaconda3\\envs\\MediaPlayerSpecial\\lib\\site-packages\\pkg_resources\\_vendor\\packaging\\metadata.py',
   'PYMODULE'),
  ('pkg_resources._vendor.packaging.requirements',
   'C:\\Users\\User\\anaconda3\\envs\\MediaPlayerSpecial\\lib\\site-packages\\pkg_resources\\_vendor\\packaging\\requirements.py',
   'PYMODULE'),
  ('pkg_resources._vendor.packaging.specifiers',
   'C:\\Users\\User\\anaconda3\\envs\\MediaPlayerSpecial\\lib\\site-packages\\pkg_resources\\_vendor\\packaging\\specifiers.py',
   'PYMODULE'),
  ('pkg_resources._vendor.packaging.tags',
   'C:\\Users\\User\\anaconda3\\envs\\MediaPlayerSpecial\\lib\\site-packages\\pkg_resources\\_vendor\\packaging\\tags.py',
   'PYMODULE'),
  ('pkg_resources._vendor.packaging.utils',
   'C:\\Users\\User\\anaconda3\\envs\\MediaPlayerSpecial\\lib\\site-packages\\pkg_resources\\_vendor\\packaging\\utils.py',
   'PYMODULE'),
  ('pkg_resources._vendor.packaging.version',
   'C:\\Users\\User\\anaconda3\\envs\\MediaPlayerSpecial\\lib\\site-packages\\pkg_resources\\_vendor\\packaging\\version.py',
   'PYMODULE'),
  ('pkg_resources._vendor.platformdirs',
   'C:\\Users\\User\\anaconda3\\envs\\MediaPlayerSpecial\\lib\\site-packages\\pkg_resources\\_vendor\\platformdirs\\__init__.py',
   'PYMODULE'),
  ('pkg_resources._vendor.platformdirs.__main__',
   'C:\\Users\\User\\anaconda3\\envs\\MediaPlayerSpecial\\lib\\site-packages\\pkg_resources\\_vendor\\platformdirs\\__main__.py',
   'PYMODULE'),
  ('pkg_resources._vendor.platformdirs.android',
   'C:\\Users\\User\\anaconda3\\envs\\MediaPlayerSpecial\\lib\\site-packages\\pkg_resources\\_vendor\\platformdirs\\android.py',
   'PYMODULE'),
  ('pkg_resources._vendor.platformdirs.api',
   'C:\\Users\\User\\anaconda3\\envs\\MediaPlayerSpecial\\lib\\site-packages\\pkg_resources\\_vendor\\platformdirs\\api.py',
   'PYMODULE'),
  ('pkg_resources._vendor.platformdirs.macos',
   'C:\\Users\\User\\anaconda3\\envs\\MediaPlayerSpecial\\lib\\site-packages\\pkg_resources\\_vendor\\platformdirs\\macos.py',
   'PYMODULE'),
  ('pkg_resources._vendor.platformdirs.unix',
   'C:\\Users\\User\\anaconda3\\envs\\MediaPlayerSpecial\\lib\\site-packages\\pkg_resources\\_vendor\\platformdirs\\unix.py',
   'PYMODULE'),
  ('pkg_resources._vendor.platformdirs.version',
   'C:\\Users\\User\\anaconda3\\envs\\MediaPlayerSpecial\\lib\\site-packages\\pkg_resources\\_vendor\\platformdirs\\version.py',
   'PYMODULE'),
  ('pkg_resources._vendor.platformdirs.windows',
   'C:\\Users\\User\\anaconda3\\envs\\MediaPlayerSpecial\\lib\\site-packages\\pkg_resources\\_vendor\\platformdirs\\windows.py',
   'PYMODULE'),
  ('pkg_resources._vendor.typing_extensions',
   'C:\\Users\\User\\anaconda3\\envs\\MediaPlayerSpecial\\lib\\site-packages\\pkg_resources\\_vendor\\typing_extensions.py',
   'PYMODULE'),
  ('pkg_resources._vendor.zipp',
   'C:\\Users\\User\\anaconda3\\envs\\MediaPlayerSpecial\\lib\\site-packages\\pkg_resources\\_vendor\\zipp.py',
   'PYMODULE'),
  ('pkg_resources.extern',
   'C:\\Users\\User\\anaconda3\\envs\\MediaPlayerSpecial\\lib\\site-packages\\pkg_resources\\extern\\__init__.py',
   'PYMODULE'),
  ('pkgutil',
   'C:\\Users\\User\\anaconda3\\envs\\MediaPlayerSpecial\\lib\\pkgutil.py',
   'PYMODULE'),
  ('platform',
   'C:\\Users\\User\\anaconda3\\envs\\MediaPlayerSpecial\\lib\\platform.py',
   'PYMODULE'),
  ('plistlib',
   'C:\\Users\\User\\anaconda3\\envs\\MediaPlayerSpecial\\lib\\plistlib.py',
   'PYMODULE'),
  ('pprint',
   'C:\\Users\\User\\anaconda3\\envs\\MediaPlayerSpecial\\lib\\pprint.py',
   'PYMODULE'),
  ('py_compile',
   'C:\\Users\\User\\anaconda3\\envs\\MediaPlayerSpecial\\lib\\py_compile.py',
   'PYMODULE'),
  ('pydoc',
   'C:\\Users\\User\\anaconda3\\envs\\MediaPlayerSpecial\\lib\\pydoc.py',
   'PYMODULE'),
  ('pydoc_data',
   'C:\\Users\\User\\anaconda3\\envs\\MediaPlayerSpecial\\lib\\pydoc_data\\__init__.py',
   'PYMODULE'),
  ('pydoc_data.topics',
   'C:\\Users\\User\\anaconda3\\envs\\MediaPlayerSpecial\\lib\\pydoc_data\\topics.py',
   'PYMODULE'),
  ('queue',
   'C:\\Users\\User\\anaconda3\\envs\\MediaPlayerSpecial\\lib\\queue.py',
   'PYMODULE'),
  ('quopri',
   'C:\\Users\\User\\anaconda3\\envs\\MediaPlayerSpecial\\lib\\quopri.py',
   'PYMODULE'),
  ('random',
   'C:\\Users\\User\\anaconda3\\envs\\MediaPlayerSpecial\\lib\\random.py',
   'PYMODULE'),
  ('runpy',
   'C:\\Users\\User\\anaconda3\\envs\\MediaPlayerSpecial\\lib\\runpy.py',
   'PYMODULE'),
  ('secrets',
   'C:\\Users\\User\\anaconda3\\envs\\MediaPlayerSpecial\\lib\\secrets.py',
   'PYMODULE'),
  ('selectors',
   'C:\\Users\\User\\anaconda3\\envs\\MediaPlayerSpecial\\lib\\selectors.py',
   'PYMODULE'),
  ('shlex',
   'C:\\Users\\User\\anaconda3\\envs\\MediaPlayerSpecial\\lib\\shlex.py',
   'PYMODULE'),
  ('shutil',
   'C:\\Users\\User\\anaconda3\\envs\\MediaPlayerSpecial\\lib\\shutil.py',
   'PYMODULE'),
  ('signal',
   'C:\\Users\\User\\anaconda3\\envs\\MediaPlayerSpecial\\lib\\signal.py',
   'PYMODULE'),
  ('socket',
   'C:\\Users\\User\\anaconda3\\envs\\MediaPlayerSpecial\\lib\\socket.py',
   'PYMODULE'),
  ('socketserver',
   'C:\\Users\\User\\anaconda3\\envs\\MediaPlayerSpecial\\lib\\socketserver.py',
   'PYMODULE'),
  ('ssl',
   'C:\\Users\\User\\anaconda3\\envs\\MediaPlayerSpecial\\lib\\ssl.py',
   'PYMODULE'),
  ('statistics',
   'C:\\Users\\User\\anaconda3\\envs\\MediaPlayerSpecial\\lib\\statistics.py',
   'PYMODULE'),
  ('string',
   'C:\\Users\\User\\anaconda3\\envs\\MediaPlayerSpecial\\lib\\string.py',
   'PYMODULE'),
  ('stringprep',
   'C:\\Users\\User\\anaconda3\\envs\\MediaPlayerSpecial\\lib\\stringprep.py',
   'PYMODULE'),
  ('subprocess',
   'C:\\Users\\User\\anaconda3\\envs\\MediaPlayerSpecial\\lib\\subprocess.py',
   'PYMODULE'),
  ('sysconfig',
   'C:\\Users\\User\\anaconda3\\envs\\MediaPlayerSpecial\\lib\\sysconfig.py',
   'PYMODULE'),
  ('tarfile',
   'C:\\Users\\User\\anaconda3\\envs\\MediaPlayerSpecial\\lib\\tarfile.py',
   'PYMODULE'),
  ('tempfile',
   'C:\\Users\\User\\anaconda3\\envs\\MediaPlayerSpecial\\lib\\tempfile.py',
   'PYMODULE'),
  ('textwrap',
   'C:\\Users\\User\\anaconda3\\envs\\MediaPlayerSpecial\\lib\\textwrap.py',
   'PYMODULE'),
  ('threading',
   'C:\\Users\\User\\anaconda3\\envs\\MediaPlayerSpecial\\lib\\threading.py',
   'PYMODULE'),
  ('tkinter',
   'C:\\Users\\User\\anaconda3\\envs\\MediaPlayerSpecial\\lib\\tkinter\\__init__.py',
   'PYMODULE'),
  ('tkinter.commondialog',
   'C:\\Users\\User\\anaconda3\\envs\\MediaPlayerSpecial\\lib\\tkinter\\commondialog.py',
   'PYMODULE'),
  ('tkinter.constants',
   'C:\\Users\\User\\anaconda3\\envs\\MediaPlayerSpecial\\lib\\tkinter\\constants.py',
   'PYMODULE'),
  ('tkinter.dialog',
   'C:\\Users\\User\\anaconda3\\envs\\MediaPlayerSpecial\\lib\\tkinter\\dialog.py',
   'PYMODULE'),
  ('tkinter.filedialog',
   'C:\\Users\\User\\anaconda3\\envs\\MediaPlayerSpecial\\lib\\tkinter\\filedialog.py',
   'PYMODULE'),
  ('tkinter.messagebox',
   'C:\\Users\\User\\anaconda3\\envs\\MediaPlayerSpecial\\lib\\tkinter\\messagebox.py',
   'PYMODULE'),
  ('tkinter.simpledialog',
   'C:\\Users\\User\\anaconda3\\envs\\MediaPlayerSpecial\\lib\\tkinter\\simpledialog.py',
   'PYMODULE'),
  ('token',
   'C:\\Users\\User\\anaconda3\\envs\\MediaPlayerSpecial\\lib\\token.py',
   'PYMODULE'),
  ('tokenize',
   'C:\\Users\\User\\anaconda3\\envs\\MediaPlayerSpecial\\lib\\tokenize.py',
   'PYMODULE'),
  ('tracemalloc',
   'C:\\Users\\User\\anaconda3\\envs\\MediaPlayerSpecial\\lib\\tracemalloc.py',
   'PYMODULE'),
  ('tty',
   'C:\\Users\\User\\anaconda3\\envs\\MediaPlayerSpecial\\lib\\tty.py',
   'PYMODULE'),
  ('typing',
   'C:\\Users\\User\\anaconda3\\envs\\MediaPlayerSpecial\\lib\\typing.py',
   'PYMODULE'),
  ('unittest',
   'C:\\Users\\User\\anaconda3\\envs\\MediaPlayerSpecial\\lib\\unittest\\__init__.py',
   'PYMODULE'),
  ('unittest._log',
   'C:\\Users\\User\\anaconda3\\envs\\MediaPlayerSpecial\\lib\\unittest\\_log.py',
   'PYMODULE'),
  ('unittest.async_case',
   'C:\\Users\\User\\anaconda3\\envs\\MediaPlayerSpecial\\lib\\unittest\\async_case.py',
   'PYMODULE'),
  ('unittest.case',
   'C:\\Users\\User\\anaconda3\\envs\\MediaPlayerSpecial\\lib\\unittest\\case.py',
   'PYMODULE'),
  ('unittest.loader',
   'C:\\Users\\User\\anaconda3\\envs\\MediaPlayerSpecial\\lib\\unittest\\loader.py',
   'PYMODULE'),
  ('unittest.main',
   'C:\\Users\\User\\anaconda3\\envs\\MediaPlayerSpecial\\lib\\unittest\\main.py',
   'PYMODULE'),
  ('unittest.result',
   'C:\\Users\\User\\anaconda3\\envs\\MediaPlayerSpecial\\lib\\unittest\\result.py',
   'PYMODULE'),
  ('unittest.runner',
   'C:\\Users\\User\\anaconda3\\envs\\MediaPlayerSpecial\\lib\\unittest\\runner.py',
   'PYMODULE'),
  ('unittest.signals',
   'C:\\Users\\User\\anaconda3\\envs\\MediaPlayerSpecial\\lib\\unittest\\signals.py',
   'PYMODULE'),
  ('unittest.suite',
   'C:\\Users\\User\\anaconda3\\envs\\MediaPlayerSpecial\\lib\\unittest\\suite.py',
   'PYMODULE'),
  ('unittest.util',
   'C:\\Users\\User\\anaconda3\\envs\\MediaPlayerSpecial\\lib\\unittest\\util.py',
   'PYMODULE'),
  ('urllib',
   'C:\\Users\\User\\anaconda3\\envs\\MediaPlayerSpecial\\lib\\urllib\\__init__.py',
   'PYMODULE'),
  ('urllib.error',
   'C:\\Users\\User\\anaconda3\\envs\\MediaPlayerSpecial\\lib\\urllib\\error.py',
   'PYMODULE'),
  ('urllib.parse',
   'C:\\Users\\User\\anaconda3\\envs\\MediaPlayerSpecial\\lib\\urllib\\parse.py',
   'PYMODULE'),
  ('urllib.request',
   'C:\\Users\\User\\anaconda3\\envs\\MediaPlayerSpecial\\lib\\urllib\\request.py',
   'PYMODULE'),
  ('urllib.response',
   'C:\\Users\\User\\anaconda3\\envs\\MediaPlayerSpecial\\lib\\urllib\\response.py',
   'PYMODULE'),
  ('uu',
   'C:\\Users\\User\\anaconda3\\envs\\MediaPlayerSpecial\\lib\\uu.py',
   'PYMODULE'),
  ('webbrowser',
   'C:\\Users\\User\\anaconda3\\envs\\MediaPlayerSpecial\\lib\\webbrowser.py',
   'PYMODULE'),
  ('xml',
   'C:\\Users\\User\\anaconda3\\envs\\MediaPlayerSpecial\\lib\\xml\\__init__.py',
   'PYMODULE'),
  ('xml.parsers',
   'C:\\Users\\User\\anaconda3\\envs\\MediaPlayerSpecial\\lib\\xml\\parsers\\__init__.py',
   'PYMODULE'),
  ('xml.parsers.expat',
   'C:\\Users\\User\\anaconda3\\envs\\MediaPlayerSpecial\\lib\\xml\\parsers\\expat.py',
   'PYMODULE'),
  ('xml.sax',
   'C:\\Users\\User\\anaconda3\\envs\\MediaPlayerSpecial\\lib\\xml\\sax\\__init__.py',
   'PYMODULE'),
  ('xml.sax._exceptions',
   'C:\\Users\\User\\anaconda3\\envs\\MediaPlayerSpecial\\lib\\xml\\sax\\_exceptions.py',
   'PYMODULE'),
  ('xml.sax.expatreader',
   'C:\\Users\\User\\anaconda3\\envs\\MediaPlayerSpecial\\lib\\xml\\sax\\expatreader.py',
   'PYMODULE'),
  ('xml.sax.handler',
   'C:\\Users\\User\\anaconda3\\envs\\MediaPlayerSpecial\\lib\\xml\\sax\\handler.py',
   'PYMODULE'),
  ('xml.sax.saxutils',
   'C:\\Users\\User\\anaconda3\\envs\\MediaPlayerSpecial\\lib\\xml\\sax\\saxutils.py',
   'PYMODULE'),
  ('xml.sax.xmlreader',
   'C:\\Users\\User\\anaconda3\\envs\\MediaPlayerSpecial\\lib\\xml\\sax\\xmlreader.py',
   'PYMODULE'),
  ('xmlrpc',
   'C:\\Users\\User\\anaconda3\\envs\\MediaPlayerSpecial\\lib\\xmlrpc\\__init__.py',
   'PYMODULE'),
  ('xmlrpc.client',
   'C:\\Users\\User\\anaconda3\\envs\\MediaPlayerSpecial\\lib\\xmlrpc\\client.py',
   'PYMODULE'),
  ('zipfile',
   'C:\\Users\\User\\anaconda3\\envs\\MediaPlayerSpecial\\lib\\zipfile.py',
   'PYMODULE'),
  ('zipimport',
   'C:\\Users\\User\\anaconda3\\envs\\MediaPlayerSpecial\\lib\\zipimport.py',
   'PYMODULE')])
